  Label   Precision Recall    F1    LCount PCount
-------------------------------------------------
A0           83.174  81.717  82.439   2341   2300
A1           82.965  82.965  82.965   3798   3798
A2           78.668  73.758  76.134   1570   1472
A3           79.310  73.547  76.320    344    319
A4           50.000  44.444  47.059     18     16
A5            0.000   0.000   0.000      1      0
A8           75.000  60.000  66.667      5      4
A9            0.000   0.000   0.000      2      0
AM            0.000   0.000   0.000      0      9
AM-ADV       57.143  33.333  42.105     24     14
AM-CAU        0.000   0.000   0.000      0      1
AM-DIR       50.000  50.000  50.000      2      2
AM-DIS       33.333  50.000  40.000      2      3
AM-EXT       68.966  57.143  62.500     35     29
AM-LOC       69.027  64.730  66.809    241    226
AM-MNR       71.274  74.929  73.056    351    369
AM-NEG       96.552  82.353  88.889     34     29
AM-PNC       66.667  33.333  44.444     12      6
AM-TMP       89.700  84.105  86.812    497    466
C-A0         60.465  52.000  55.914     50     43
C-A1         79.505  56.675  66.176    397    283
C-A2         78.626  64.780  71.034    159    131
C-A3         36.364  40.000  38.095     10     11
C-A4          0.000   0.000   0.000      0      1
C-A8          0.000   0.000   0.000      1     13
C-AM-ADV      0.000   0.000   0.000      0      1
C-AM-CAU      0.000   0.000   0.000      0     45
C-AM-EXT      0.000   0.000   0.000      0      2
C-AM-LOC     89.286  86.207  87.719     29     28
C-AM-MNR    100.000  33.333  50.000      6      2
C-AM-NEG     50.000 100.000  66.667      1      2
C-AM-PNC    100.000 100.000 100.000      1      1
C-AM-TMP     68.182  55.556  61.224     27     22
C-SUP        78.295  47.529  59.151    425    258
R-A0         77.273  53.125  62.963     32     22
R-A1         15.385  22.222  18.182      9     13
R-A2          0.000   0.000   0.000      8      3
R-A3          0.000   0.000   0.000      4      1
R-A4          0.000   0.000   0.000      0      6
R-AM-LOC      0.000   0.000   0.000      0     13
SUP          85.462  73.812  79.211   1115    963
-------------------------------------------------
candidate    22.741   9.364  13.265    833    343
missed        0.000   0.000   0.000      0   1114
-------------------------------------------------
Overall      80.818  76.452  78.575  11551  10927
Accuracy     71.940    -       -      -     12384
