  Label   Precision Recall    F1   LCount PCount
------------------------------------------------
A0           91.835  90.218 91.019   3578   3515
A1           92.089  90.457 91.265   4967   4879
A2           82.863  68.953 75.271   1108    922
A3           85.593  58.721 69.655    172    118
A4           91.000  89.216 90.099    102    100
A5          100.000  80.000 88.889      5      4
AM-ADV       79.388  76.877 78.112    506    490
AM-CAU       79.487  81.579 80.519     76     78
AM-DIR       58.750  55.294 56.970     85     80
AM-DIS       82.105  73.125 77.355    320    285
AM-EXT       76.190  50.000 60.377     32     21
AM-LOC       85.596  84.426 85.007    366    361
AM-MNR       74.924  70.402 72.593    348    327
AM-MOD       99.270  98.730 98.999    551    548
AM-NEG       99.559  98.261 98.906    230    227
AM-PNC       72.034  73.913 72.961    115    118
AM-PRD      100.000  40.000 57.143      5      2
AM-REC        0.000   0.000  0.000      2      0
AM-TMP       93.658  91.226 92.426   1117   1088
AM-at         0.000   0.000  0.000      0      2
AM-for        0.000   0.000  0.000      0     15
C-A0         33.333   8.696 13.793     23      6
C-A1         83.032  62.331 71.207    369    277
C-A2         55.556  29.412 38.462     17      9
C-A3          0.000   0.000  0.000      3      1
C-AM-ADV      0.000   0.000  0.000      2      0
C-AM-DIR      0.000   0.000  0.000      1      0
C-AM-DIS      0.000   0.000  0.000      0      1
C-AM-EXT      0.000   0.000  0.000      2      0
C-AM-MNR      0.000   0.000  0.000      2      0
C-AM-MOD      0.000   0.000  0.000      2      0
C-AM-TMP      0.000   0.000  0.000      1      0
C-V          84.211  90.780 87.372    141    152
R-A0         88.732  89.151 88.941    212    213
R-A1         81.513  74.046 77.600    131    119
R-A2         66.667  30.769 42.105     13      6
R-A3          0.000   0.000  0.000      1      0
R-A4          0.000   0.000  0.000      1      0
R-AM-ADV      0.000   0.000  0.000      2      0
R-AM-CAU      0.000   0.000  0.000      1      0
R-AM-EXT     50.000 100.000 66.667      1      2
R-AM-LOC     75.000  56.250 64.286     16     12
R-AM-MNR      0.000   0.000  0.000      2      0
R-AM-TMP     56.250  50.000 52.941     18     16
------------------------------------------------
candidate    58.549  23.493 33.531    481    193
missed        0.000   0.000  0.000      0    940
------------------------------------------------
Overall      89.560  85.573 87.521  14646  13994
Accuracy     83.599    -      -      -     15127
